{
    "jet" : {
        "ints" : [
            "n_dRtracks",
            "n_GAtracks",
            "jetPtRank",
            "n_truth_promptLepton",
            "GhostBHadronsFinalCount",
            "GhostCHadronsFinalCount",
            "HadronConeExclTruthLabelID",
            "HadronConeExclExtendedTruthLabelID",
            "HadronConeExclTruthLabelPdgId",
            "HadronConeExclTruthLabelChildPdgId",
            "PartonTruthLabelID",
            "TauDecayLabel",
            "GhostTausFinalCount",
            "GhostTrackCount"
        ],
        "floats": [
            "NNJvt",
            "pt",
            "eta",
            "phi",
            "mass",
            "energy",
            "HadronConeExclTruthLabelPt",
            "HadronConeExclTruthLabelLxy",
            "HadronConeExclTruthLabelDR",
            "HadronConeExclTruthLabelChildPt",
            "HadronConeExclTruthLabelChildLxy"
        ]
    },
    "event": {
        "customs" : [
            "mcEventWeight",
            "eventNumber",
            "averageInteractionsPerCrossing",
            "actualInteractionsPerCrossing",
            "nPrimaryVertices",
            "isRun3",
            "primaryVertexDetectorZ"
        ]
    },
    "default_mapping": { "file": "default-mapping.json" }
}