{
    "dumper": {
        "jet_collection": "AntiKt4EMPFlowJets",
        "calibration": {
        },
        "selection": {
            "file": "fragments/pflow-selection.json"
        },
        "vertex_collection": "PrimaryVertices",
        "dl2_configs": [],
        "variables": {
            "jet" : {
                "ints" : [
                    "HadronConeExclTruthLabelID"
                ],
                "floats": [
                    "pt",
                    "eta",
                    "phi",
                    "GN2v01_pb",
                    "GN2v01_pc",
                    "GN2v01_pu",
                    "GN2v01_ptau"
                ]
            },
            "btagging" : {
                "ints" : [],
                "floats": [
                ],
                "chars": []
            },
            "default_mapping": {
                "file": "fragments/default-mapping.json"
            }
        },

        "tracks": [],
        "truths": [],
        "decorate": {
            "jet_aug": false,
            "btag_jes": false,
            "soft_muon": false,
            "track_sv_info": false
        },
        "btagging_link": "btaggingLink"
    },
    "track_systematics": [
        "TRK_RES_D0_MEAS",
        "TRK_RES_Z0_MEAS",
        "TRK_RES_D0_MEAS_UP",
        "TRK_RES_Z0_MEAS_UP",
        "TRK_RES_D0_MEAS_DOWN",
        "TRK_RES_Z0_MEAS_DOWN",
        "TRK_RES_D0_DEAD",
        "TRK_RES_Z0_DEAD",
        "TRK_BIAS_D0_WM",
        "TRK_BIAS_Z0_WM",
        "TRK_BIAS_QOVERP_SAGITTA_WM",
        "TRK_FAKE_RATE_LOOSE",
        "TRK_FAKE_RATE_TIGHT",
        "TRK_EFF_LOOSE_GLOBAL",
        "TRK_EFF_LOOSE_IBL",
        "TRK_EFF_LOOSE_PP0",
        "TRK_EFF_LOOSE_PHYSMODEL",
        "TRK_EFF_TIGHT_GLOBAL",
        "TRK_EFF_TIGHT_IBL",
        "TRK_EFF_TIGHT_PP0",
        "TRK_EFF_TIGHT_PHYSMODEL",
        "TRK_EFF_LARGED0_GLOBAL",
        "TRK_EFF_LARGED0_IBL",
        "TRK_EFF_LARGED0_PP0",
        "TRK_EFF_LARGED0_PHYSMODEL",
        "TRK_EFF_LOOSE_TIDE",
        "TRK_FAKE_RATE_TIGHT_TIDE",
        "TRK_FAKE_RATE_LOOSE_TIDE",
        "TRK_FAKE_RATE_LOOSE_ROBUST"
    ],
    "flip_configs": [
        "STANDARD",
        "SIMPLE_FLIP"
    ],
    "jet_systematics": [
        "PRODUCTION",
        "JET_GroupedNP_1",
        "JET_GroupedNP_2",
        "JET_GroupedNP_3",
        "JET_EtaIntercalibration_NonClosure_PreRec",
        "JET_InSitu_NonClosure_PreRec",
        "JET_JESUnc_mc20vsmc21_MC20_PreRec",
        "JET_JESUnc_Noise_PreRec",
        "JET_JESUnc_VertexingAlg_PreRec",
        "JET_RelativeNonClosure_MC20",
        "JET_JER_DataVsMC_MC16",
        "JET_JER_EffectiveNP_1",
        "JET_JER_EffectiveNP_2",
        "JET_JER_EffectiveNP_3",
        "JET_JER_EffectiveNP_4",
        "JET_JER_EffectiveNP_5",
        "JET_JER_EffectiveNP_6",
        "JET_JER_EffectiveNP_7restTerm",
        "JET_JERUnc_mc20vsmc21_MC20_PreRec",
        "JET_JERUnc_Noise_PreRec"
    ],
    "jet_sigma": 1.0,
    "track_container": "InDetTrackParticles",
    "decorate_track_truth": false,
    "ip_method": "rich",
    "add_fold_hash": false
}
