# alternative generator samples, used for the high-pt extrapolation.

# alternative parton shower Z' samples, Herwig7.2 & Pythia8
mc20_13TeV.521296.MGPy8EG_NNPDF30NLOME_A14_ZPrime_flatpT.deriv.DAOD_FTAG1.e8555_s3797_r13144_p5981
mc20_13TeV.525819.MGH7EG_NNPDF30NLOME_Zprime_flatpT_Showering.deriv.DAOD_FTAG1.e8555_s3797_r13144_p5981
mc23_13p6TeV.521296.MGPy8EG_NNPDF30NLOME_A14_ZPrime_flatpT.deriv.DAOD_FTAG1.e8551_s4162_r14622_p5981
mc23_13p6TeV.521296.MGPy8EG_NNPDF30NLOME_A14_ZPrime_flatpT.deriv.DAOD_FTAG1.e8551_s4159_r14799_p5981
mc23_13p6TeV.525819.MGH7EG_NNPDF30NLOME_Zprime_flatpT_Showering.deriv.DAOD_FTAG1.e8551_s4162_r14622_p5981
mc23_13p6TeV.525819.MGH7EG_NNPDF30NLOME_Zprime_flatpT_Showering.deriv.DAOD_FTAG1.e8551_s4159_r14799_p5981

###################
#V+jets samples for generator systematic
###################

mc20_13TeV.506193.MGPy8EG_Zee_FxFx_3jets_HT2bias_BFilter.deriv.DAOD_FTAG1.e8382_s3681_r13145_p5981
mc20_13TeV.506194.MGPy8EG_Zee_FxFx_3jets_HT2bias_CFilterBVeto.deriv.DAOD_FTAG1.e8382_s3681_r13145_p5981
mc20_13TeV.506195.MGPy8EG_Zee_FxFx_3jets_HT2bias_CVetoBVeto.deriv.DAOD_FTAG1.e8382_s3681_r13145_p5981
mc20_13TeV.506196.MGPy8EG_Zmumu_FxFx_3jets_HT2bias_BFilter.deriv.DAOD_FTAG1.e8382_s3681_r13145_p5981
mc20_13TeV.506197.MGPy8EG_Zmumu_FxFx_3jets_HT2bias_CFilterBVeto.deriv.DAOD_FTAG1.e8382_s3681_r13145_p5981
mc20_13TeV.506198.MGPy8EG_Zmumu_FxFx_3jets_HT2bias_CVetoBVeto.deriv.DAOD_FTAG1.e8382_s3681_r13145_p5981
mc20_13TeV.506193.MGPy8EG_Zee_FxFx_3jets_HT2bias_BFilter.deriv.DAOD_FTAG1.e8382_s3681_r13144_p5981
mc20_13TeV.506194.MGPy8EG_Zee_FxFx_3jets_HT2bias_CFilterBVeto.deriv.DAOD_FTAG1.e8382_s3681_r13144_p5981
mc20_13TeV.506195.MGPy8EG_Zee_FxFx_3jets_HT2bias_CVetoBVeto.deriv.DAOD_FTAG1.e8382_s3681_r13144_p5981
mc20_13TeV.506196.MGPy8EG_Zmumu_FxFx_3jets_HT2bias_BFilter.deriv.DAOD_FTAG1.e8382_s3681_r13144_p5981
mc20_13TeV.506197.MGPy8EG_Zmumu_FxFx_3jets_HT2bias_CFilterBVeto.deriv.DAOD_FTAG1.e8382_s3681_r13144_p5981
mc20_13TeV.506198.MGPy8EG_Zmumu_FxFx_3jets_HT2bias_CVetoBVeto.deriv.DAOD_FTAG1.e8382_s3681_r13144_p5981
mc20_13TeV.506193.MGPy8EG_Zee_FxFx_3jets_HT2bias_BFilter.deriv.DAOD_FTAG1.e8382_s3681_r13167_p5981
mc20_13TeV.506194.MGPy8EG_Zee_FxFx_3jets_HT2bias_CFilterBVeto.deriv.DAOD_FTAG1.e8382_s3681_r13167_p5981
mc20_13TeV.506195.MGPy8EG_Zee_FxFx_3jets_HT2bias_CVetoBVeto.deriv.DAOD_FTAG1.e8382_s3681_r13167_p5981
mc20_13TeV.506196.MGPy8EG_Zmumu_FxFx_3jets_HT2bias_BFilter.deriv.DAOD_FTAG1.e8382_s3681_r13167_p5981
mc20_13TeV.506197.MGPy8EG_Zmumu_FxFx_3jets_HT2bias_CFilterBVeto.deriv.DAOD_FTAG1.e8382_s3681_r13167_p5981
mc20_13TeV.506198.MGPy8EG_Zmumu_FxFx_3jets_HT2bias_CVetoBVeto.deriv.DAOD_FTAG1.e8382_s3681_r13167_p5981
mc20_13TeV.508979.MGPy8EG_Wenu_FxFx_3jets_HT2bias_BFilter.deriv.DAOD_FTAG1.e8382_s3681_r13167_p5981
mc20_13TeV.508979.MGPy8EG_Wenu_FxFx_3jets_HT2bias_BFilter.deriv.DAOD_FTAG1.e8382_s3681_r13145_p5981
mc20_13TeV.508979.MGPy8EG_Wenu_FxFx_3jets_HT2bias_BFilter.deriv.DAOD_FTAG1.e8382_s3681_r13144_p5981
mc20_13TeV.508980.MGPy8EG_Wenu_FxFx_3jets_HT2bias_CFilterBVeto.deriv.DAOD_FTAG1.e8382_s3681_r13167_p5981
mc20_13TeV.508980.MGPy8EG_Wenu_FxFx_3jets_HT2bias_CFilterBVeto.deriv.DAOD_FTAG1.e8382_s3681_r13145_p5981
mc20_13TeV.508980.MGPy8EG_Wenu_FxFx_3jets_HT2bias_CFilterBVeto.deriv.DAOD_FTAG1.e8382_s3681_r13144_p5981
mc20_13TeV.508981.MGPy8EG_Wenu_FxFx_3jets_HT2bias_CVetoBVeto.deriv.DAOD_FTAG1.e8382_s3681_r13167_p5981
mc20_13TeV.508981.MGPy8EG_Wenu_FxFx_3jets_HT2bias_CVetoBVeto.deriv.DAOD_FTAG1.e8382_s3681_r13145_p5981
mc20_13TeV.508981.MGPy8EG_Wenu_FxFx_3jets_HT2bias_CVetoBVeto.deriv.DAOD_FTAG1.e8382_s3681_r13144_p5981
mc20_13TeV.508982.MGPy8EG_Wmunu_FxFx_3jets_HT2bias_BFilter.deriv.DAOD_FTAG1.e8382_s3681_r13167_p5981
mc20_13TeV.508982.MGPy8EG_Wmunu_FxFx_3jets_HT2bias_BFilter.deriv.DAOD_FTAG1.e8382_s3681_r13145_p5981
mc20_13TeV.508982.MGPy8EG_Wmunu_FxFx_3jets_HT2bias_BFilter.deriv.DAOD_FTAG1.e8382_s3681_r13144_p5981
mc20_13TeV.508983.MGPy8EG_Wmunu_FxFx_3jets_HT2bias_CFilterBVeto.deriv.DAOD_FTAG1.e8382_s3681_r13167_p5981
mc20_13TeV.508983.MGPy8EG_Wmunu_FxFx_3jets_HT2bias_CFilterBVeto.deriv.DAOD_FTAG1.e8382_s3681_r13145_p5981
mc20_13TeV.508983.MGPy8EG_Wmunu_FxFx_3jets_HT2bias_CFilterBVeto.deriv.DAOD_FTAG1.e8382_s3681_r13144_p5981
mc20_13TeV.508984.MGPy8EG_Wmunu_FxFx_3jets_HT2bias_CVetoBVeto.deriv.DAOD_FTAG1.e8382_s3681_r13167_p5981
mc20_13TeV.508984.MGPy8EG_Wmunu_FxFx_3jets_HT2bias_CVetoBVeto.deriv.DAOD_FTAG1.e8382_s3681_r13145_p5981
mc20_13TeV.508984.MGPy8EG_Wmunu_FxFx_3jets_HT2bias_CVetoBVeto.deriv.DAOD_FTAG1.e8382_s3681_r13144_p5981
mc20_13TeV.700320.Sh_2211_Zee_maxHTpTV2_BFilter.deriv.DAOD_FTAG1.e8351_s3681_r13144_p5981
mc20_13TeV.700320.Sh_2211_Zee_maxHTpTV2_BFilter.deriv.DAOD_FTAG1.e8351_s3681_r13145_p5981
mc20_13TeV.700320.Sh_2211_Zee_maxHTpTV2_BFilter.deriv.DAOD_FTAG1.e8351_s3681_r13167_p5981
mc20_13TeV.700321.Sh_2211_Zee_maxHTpTV2_CFilterBVeto.deriv.DAOD_FTAG1.e8351_s3681_r13144_p5981
mc20_13TeV.700321.Sh_2211_Zee_maxHTpTV2_CFilterBVeto.deriv.DAOD_FTAG1.e8351_s3681_r13145_p5981
mc20_13TeV.700321.Sh_2211_Zee_maxHTpTV2_CFilterBVeto.deriv.DAOD_FTAG1.e8351_s3681_r13167_p5981
mc20_13TeV.700323.Sh_2211_Zmumu_maxHTpTV2_BFilter.deriv.DAOD_FTAG1.e8351_s3681_r13144_p5981
mc20_13TeV.700323.Sh_2211_Zmumu_maxHTpTV2_BFilter.deriv.DAOD_FTAG1.e8351_s3681_r13145_p5981
mc20_13TeV.700323.Sh_2211_Zmumu_maxHTpTV2_BFilter.deriv.DAOD_FTAG1.e8351_s3681_r13167_p5981
mc20_13TeV.700324.Sh_2211_Zmumu_maxHTpTV2_CFilterBVeto.deriv.DAOD_FTAG1.e8351_s3681_r13144_p5981
mc20_13TeV.700324.Sh_2211_Zmumu_maxHTpTV2_CFilterBVeto.deriv.DAOD_FTAG1.e8351_s3681_r13145_p5981
mc20_13TeV.700324.Sh_2211_Zmumu_maxHTpTV2_CFilterBVeto.deriv.DAOD_FTAG1.e8351_s3681_r13167_p5981
mc20_13TeV.700338.Sh_2211_Wenu_maxHTpTV2_BFilter.deriv.DAOD_FTAG1.e8351_s3681_r13144_p5981
mc20_13TeV.700338.Sh_2211_Wenu_maxHTpTV2_BFilter.deriv.DAOD_FTAG1.e8351_s3681_r13145_p5981
mc20_13TeV.700338.Sh_2211_Wenu_maxHTpTV2_BFilter.deriv.DAOD_FTAG1.e8351_s3681_r13167_p5981
mc20_13TeV.700339.Sh_2211_Wenu_maxHTpTV2_CFilterBVeto.deriv.DAOD_FTAG1.e8351_s3681_r13144_p5981
mc20_13TeV.700339.Sh_2211_Wenu_maxHTpTV2_CFilterBVeto.deriv.DAOD_FTAG1.e8351_s3681_r13145_p5981
mc20_13TeV.700339.Sh_2211_Wenu_maxHTpTV2_CFilterBVeto.deriv.DAOD_FTAG1.e8351_s3681_r13167_p5981
mc20_13TeV.700340.Sh_2211_Wenu_maxHTpTV2_CVetoBVeto.deriv.DAOD_FTAG1.e8351_s3681_r13144_p5981
mc20_13TeV.700340.Sh_2211_Wenu_maxHTpTV2_CVetoBVeto.deriv.DAOD_FTAG1.e8351_s3681_r13145_p5981
mc20_13TeV.700340.Sh_2211_Wenu_maxHTpTV2_CVetoBVeto.deriv.DAOD_FTAG1.e8351_s3681_r13167_p5981
mc20_13TeV.700341.Sh_2211_Wmunu_maxHTpTV2_BFilter.deriv.DAOD_FTAG1.e8351_s3681_r13144_p5981
mc20_13TeV.700341.Sh_2211_Wmunu_maxHTpTV2_BFilter.deriv.DAOD_FTAG1.e8351_s3681_r13145_p5981
mc20_13TeV.700341.Sh_2211_Wmunu_maxHTpTV2_BFilter.deriv.DAOD_FTAG1.e8351_s3681_r13167_p5981
mc20_13TeV.700342.Sh_2211_Wmunu_maxHTpTV2_CFilterBVeto.deriv.DAOD_FTAG1.e8351_s3681_r13144_p5981
mc20_13TeV.700342.Sh_2211_Wmunu_maxHTpTV2_CFilterBVeto.deriv.DAOD_FTAG1.e8351_s3681_r13145_p5981
mc20_13TeV.700342.Sh_2211_Wmunu_maxHTpTV2_CFilterBVeto.deriv.DAOD_FTAG1.e8351_s3681_r13167_p5981
mc20_13TeV.700343.Sh_2211_Wmunu_maxHTpTV2_CVetoBVeto.deriv.DAOD_FTAG1.e8351_s3681_r13144_p5981
mc20_13TeV.700343.Sh_2211_Wmunu_maxHTpTV2_CVetoBVeto.deriv.DAOD_FTAG1.e8351_s3681_r13145_p5981
mc20_13TeV.700343.Sh_2211_Wmunu_maxHTpTV2_CVetoBVeto.deriv.DAOD_FTAG1.e8351_s3681_r13167_p5981

mc23_13p6TeV.513105.MGPy8EG_Zee_FxFx3jHT2bias_SW_BFilter.deriv.DAOD_FTAG1.e8514_s4162_r14622_p5981
mc23_13p6TeV.513105.MGPy8EG_Zee_FxFx3jHT2bias_SW_BFilter.deriv.DAOD_FTAG1.e8514_s4159_r14799_p5981
mc23_13p6TeV.513106.MGPy8EG_Zee_FxFx3jHT2bias_SW_CFilterBVeto.deriv.DAOD_FTAG1.e8514_s4162_r14622_p5981
mc23_13p6TeV.513106.MGPy8EG_Zee_FxFx3jHT2bias_SW_CFilterBVeto.deriv.DAOD_FTAG1.e8514_s4159_r14799_p5981
mc23_13p6TeV.513107.MGPy8EG_Zee_FxFx3jHT2bias_SW_CVetoBVeto.deriv.DAOD_FTAG1.e8514_s4162_r14622_p5981
mc23_13p6TeV.513107.MGPy8EG_Zee_FxFx3jHT2bias_SW_CVetoBVeto.deriv.DAOD_FTAG1.e8514_s4159_r14799_p5981
mc23_13p6TeV.513108.MGPy8EG_Zmumu_FxFx3jHT2bias_SW_BFilter.deriv.DAOD_FTAG1.e8514_s4162_r14622_p5981
mc23_13p6TeV.513108.MGPy8EG_Zmumu_FxFx3jHT2bias_SW_BFilter.deriv.DAOD_FTAG1.e8514_s4159_r14799_p5981
mc23_13p6TeV.513109.MGPy8EG_Zmumu_FxFx3jHT2bias_SW_CFilterBVeto.deriv.DAOD_FTAG1.e8514_s4162_r14622_p5981
mc23_13p6TeV.513109.MGPy8EG_Zmumu_FxFx3jHT2bias_SW_CFilterBVeto.deriv.DAOD_FTAG1.e8514_s4159_r14799_p5981
mc23_13p6TeV.513110.MGPy8EG_Zmumu_FxFx3jHT2bias_SW_CVetoBVeto.deriv.DAOD_FTAG1.e8514_s4162_r14622_p5981
mc23_13p6TeV.513110.MGPy8EG_Zmumu_FxFx3jHT2bias_SW_CVetoBVeto.deriv.DAOD_FTAG1.e8514_s4159_r14799_p5981
mc23_13p6TeV.513093.MGPy8EG_Wenu_FxFx3jHT2bias_SW_BFilter.deriv.DAOD_FTAG1.e8514_s4162_r14622_p5981
mc23_13p6TeV.513093.MGPy8EG_Wenu_FxFx3jHT2bias_SW_BFilter.deriv.DAOD_FTAG1.e8514_s4159_r14799_p5981
mc23_13p6TeV.513094.MGPy8EG_Wenu_FxFx3jHT2bias_SW_CFilterBVeto.deriv.DAOD_FTAG1.e8514_s4162_r14622_p5981
mc23_13p6TeV.513094.MGPy8EG_Wenu_FxFx3jHT2bias_SW_CFilterBVeto.deriv.DAOD_FTAG1.e8514_s4159_r14799_p5981
mc23_13p6TeV.513095.MGPy8EG_Wenu_FxFx3jHT2bias_SW_CVetoBVeto.deriv.DAOD_FTAG1.e8514_s4162_r14622_p5981
mc23_13p6TeV.513095.MGPy8EG_Wenu_FxFx3jHT2bias_SW_CVetoBVeto.deriv.DAOD_FTAG1.e8514_s4159_r14799_p5981
mc23_13p6TeV.513096.MGPy8EG_Wmunu_FxFx3jHT2bias_SW_BFilter.deriv.DAOD_FTAG1.e8514_s4162_r14622_p5981
mc23_13p6TeV.513096.MGPy8EG_Wmunu_FxFx3jHT2bias_SW_BFilter.deriv.DAOD_FTAG1.e8514_s4159_r14799_p5981
mc23_13p6TeV.513097.MGPy8EG_Wmunu_FxFx3jHT2bias_SW_CFilterBVeto.deriv.DAOD_FTAG1.e8514_s4162_r14622_p5981
mc23_13p6TeV.513097.MGPy8EG_Wmunu_FxFx3jHT2bias_SW_CFilterBVeto.deriv.DAOD_FTAG1.e8514_s4159_r14799_p5981
mc23_13p6TeV.513098.MGPy8EG_Wmunu_FxFx3jHT2bias_SW_CVetoBVeto.deriv.DAOD_FTAG1.e8514_s4162_r14622_p5981
mc23_13p6TeV.513098.MGPy8EG_Wmunu_FxFx3jHT2bias_SW_CVetoBVeto.deriv.DAOD_FTAG1.e8514_s4159_r14799_p5981
mc23_13p6TeV.700786.Sh_2214_Zee_maxHTpTV2_BFilter.deriv.DAOD_FTAG1.e8514_s4162_r14622_p5981
mc23_13p6TeV.700786.Sh_2214_Zee_maxHTpTV2_BFilter.deriv.DAOD_FTAG1.e8514_s4159_r14799_p5981
mc23_13p6TeV.700787.Sh_2214_Zee_maxHTpTV2_CFilterBVeto.deriv.DAOD_FTAG1.e8514_s4162_r14622_p5981
mc23_13p6TeV.700787.Sh_2214_Zee_maxHTpTV2_CFilterBVeto.deriv.DAOD_FTAG1.e8514_s4159_r14799_p5981
mc23_13p6TeV.700788.Sh_2214_Zee_maxHTpTV2_CVetoBVeto.deriv.DAOD_FTAG1.e8514_s4162_r14622_p5981
mc23_13p6TeV.700788.Sh_2214_Zee_maxHTpTV2_CVetoBVeto.deriv.DAOD_FTAG1.e8514_s4159_r14799_p5981
mc23_13p6TeV.700789.Sh_2214_Zmumu_maxHTpTV2_BFilter.deriv.DAOD_FTAG1.e8514_s4162_r14622_p5981
mc23_13p6TeV.700789.Sh_2214_Zmumu_maxHTpTV2_BFilter.deriv.DAOD_FTAG1.e8514_s4159_r14799_p5981
mc23_13p6TeV.700790.Sh_2214_Zmumu_maxHTpTV2_CFilterBVeto.deriv.DAOD_FTAG1.e8514_s4162_r14622_p5981
mc23_13p6TeV.700790.Sh_2214_Zmumu_maxHTpTV2_CFilterBVeto.deriv.DAOD_FTAG1.e8514_s4159_r14799_p5981
mc23_13p6TeV.700791.Sh_2214_Zmumu_maxHTpTV2_CVetoBVeto.deriv.DAOD_FTAG1.e8514_s4162_r14622_p5981
mc23_13p6TeV.700791.Sh_2214_Zmumu_maxHTpTV2_CVetoBVeto.deriv.DAOD_FTAG1.e8514_s4159_r14799_p5981
mc23_13p6TeV.700777.Sh_2214_Wenu_maxHTpTV2_BFilter.deriv.DAOD_FTAG1.e8514_s4162_r14622_p5981
mc23_13p6TeV.700777.Sh_2214_Wenu_maxHTpTV2_BFilter.deriv.DAOD_FTAG1.e8514_s4159_r14799_p5981
mc23_13p6TeV.700778.Sh_2214_Wenu_maxHTpTV2_CFilterBVeto.deriv.DAOD_FTAG1.e8514_s4162_r14622_p5981
mc23_13p6TeV.700778.Sh_2214_Wenu_maxHTpTV2_CFilterBVeto.deriv.DAOD_FTAG1.e8514_s4159_r14799_p5981
mc23_13p6TeV.700779.Sh_2214_Wenu_maxHTpTV2_CVetoBVeto.deriv.DAOD_FTAG1.e8514_s4162_r14622_p5981
mc23_13p6TeV.700779.Sh_2214_Wenu_maxHTpTV2_CVetoBVeto.deriv.DAOD_FTAG1.e8514_s4159_r14799_p5981
mc23_13p6TeV.700780.Sh_2214_Wmunu_maxHTpTV2_BFilter.deriv.DAOD_FTAG1.e8514_s4162_r14622_p5981
mc23_13p6TeV.700780.Sh_2214_Wmunu_maxHTpTV2_BFilter.deriv.DAOD_FTAG1.e8514_s4159_r14799_p5981
mc23_13p6TeV.700781.Sh_2214_Wmunu_maxHTpTV2_CFilterBVeto.deriv.DAOD_FTAG1.e8514_s4162_r14622_p5981
mc23_13p6TeV.700781.Sh_2214_Wmunu_maxHTpTV2_CFilterBVeto.deriv.DAOD_FTAG1.e8514_s4159_r14799_p5981
mc23_13p6TeV.700782.Sh_2214_Wmunu_maxHTpTV2_CVetoBVeto.deriv.DAOD_FTAG1.e8514_s4162_r14622_p5981
mc23_13p6TeV.700782.Sh_2214_Wmunu_maxHTpTV2_CVetoBVeto.deriv.DAOD_FTAG1.e8514_s4159_r14799_p5981
